{
  "posts": [
    {
      "id": 2,
      "title": "POST TWO",
      "body": "Some Cool content for the post two!",
      "author": "HT",
      "authorId": 1
    },
    {
      "id": 3,
      "title": "POST THREE",
      "body": "Some Cool content for the post three!",
      "author": "Study Link",
      "authorId": 2
    },
    {
      "title": "POST ONE",
      "author": "HT",
      "body": "Some cool content for post one!",
      "id": 5,
      "authorId": 1
    },
    {
      "title": "POST FOUR",
      "author": "HT",
      "body": "Some cool content for post one!",
      "id": 6,
      "authorId": 1
    },
    {
      "title": "POST FIVE",
      "author": "HT",
      "body": "Body for 5",
      "id": 7,
      "authorId": 1
    },
    {
      "title": "POST SIX",
      "author": "HT",
      "body": "Body for post 6!",
      "id": 8,
      "authorId": 1
    }
  ],
  "comments": [],
  "users": [
    {
      "id": 1,
      "name": "Study Link",
      "password": "abcd1234"
    }
  ],
  "authorInfo": [
    {
      "id": 1,
      "authorName": "HT",
      "authorEmail": "ht@gmail.com",
      "authorBDate": "12/08/1989",
      "authorAddress": "202, Mulund",
      "authorPhone": "98774623",
      "authorPassword": "1234@abcd",
      "authorImg": "92.jpg"
    },
    {
      "id": 2,
      "authorName": "Study Link",
      "authorEmail": "studylink@gmail.com",
      "authorBDate": "10/08/1998",
      "authorAddress": "102, Mulund",
      "authorPhone": "7894561",
      "authorPassword": "abcd@1234",
      "authorImg": "99.jpg"
    }
  ]
}